<svg xmlns="http://www.w3.org/2000/svg" xmlns:xlink="http://www.w3.org/1999/xlink" xmlns:s="https://github.com/nturley/netlistsvg" width="1714" height="1456">
  <style>svg {
    stroke:#000;
    fill:none;
  }
  text {
    fill:#000;
    stroke:none;
    font-size:10px;
    font-weight: bold;
    font-family: "Courier New", monospace;
  }
  .nodelabel {
    text-anchor: middle;
  }
  .inputPortLabel {
    text-anchor: end;
  }
  .splitjoinBody {
    fill:#000;
  }</style>
  <g s:type="mux" transform="translate(1124,835.5)" s:width="20" s:height="40" id="cell_$auto$ghdl.cc:1037:import_module$42">
    <s:alias val="$pmux"/>
    <s:alias val="$mux"/>
    <s:alias val="$_MUX_"/>
    <path d="M0,0 L20,10 L20,30 L0,40 Z" class="cell_$auto$ghdl.cc:1037:import_module$42"/>
    <g s:x="0" s:y="10" s:pid="A"/>
    <g s:x="0" s:y="30" s:pid="B"/>
    <g s:x="10" s:y="35" s:pid="S"/>
    <g s:x="20" s:y="20" s:pid="Y"/>
  </g>
  <g s:type="not" transform="translate(963.5,590.5)" s:width="30" s:height="20" id="cell_$auto$ghdl.cc:1040:import_module$44">
    <s:alias val="$_NOT_"/>
    <s:alias val="$not"/>
    <s:alias val="$logic_not"/>
    <path d="M0,0 L0,20 L20,10 Z" class="cell_$auto$ghdl.cc:1040:import_module$44"/>
    <circle cx="23" cy="10" r="3" class="cell_$auto$ghdl.cc:1040:import_module$44"/>
    <g s:x="0" s:y="10" s:pid="A"/>
    <g s:x="25" s:y="10" s:pid="Y"/>
  </g>
  <g s:type="mux" transform="translate(1124,590.5)" s:width="20" s:height="40" id="cell_$auto$ghdl.cc:1042:import_module$46">
    <s:alias val="$pmux"/>
    <s:alias val="$mux"/>
    <s:alias val="$_MUX_"/>
    <path d="M0,0 L20,10 L20,30 L0,40 Z" class="cell_$auto$ghdl.cc:1042:import_module$46"/>
    <g s:x="0" s:y="10" s:pid="A"/>
    <g s:x="0" s:y="30" s:pid="B"/>
    <g s:x="10" s:y="35" s:pid="S"/>
    <g s:x="20" s:y="20" s:pid="Y"/>
  </g>
  <g s:type="generic" transform="translate(474,1012.5)" s:width="30" s:height="40" id="cell_$auto$opt_reduce.cc:128:opt_mux$47">
    <text x="15" y="-4" class="nodelabel cell_$auto$opt_reduce.cc:128:opt_mux$47" s:attribute="ref">$reduce_or</text>
    <rect width="30" height="20" s:generic="body" class="cell_$auto$opt_reduce.cc:128:opt_mux$47"/>
    <g transform="translate(0,10)" s:x="0" s:y="10" s:pid="in0" id="port_$auto$opt_reduce.cc:128:opt_mux$47~A">
      <text x="-3" y="-4" class="inputPortLabel cell_$auto$opt_reduce.cc:128:opt_mux$47">A</text>
    </g>
    <g transform="translate(30,10)" s:x="30" s:y="10" s:pid="out0" id="port_$auto$opt_reduce.cc:128:opt_mux$47~Y">
      <text x="5" y="-4" style="fill:#000; stroke:none" class="cell_$auto$opt_reduce.cc:128:opt_mux$47">Y</text>
    </g>
  </g>
  <g s:type="generic" transform="translate(880,1012.5)" s:width="30" s:height="40" id="cell_$auto$opt_reduce.cc:128:opt_mux$49">
    <text x="15" y="-4" class="nodelabel cell_$auto$opt_reduce.cc:128:opt_mux$49" s:attribute="ref">$reduce_or</text>
    <rect width="30" height="20" s:generic="body" class="cell_$auto$opt_reduce.cc:128:opt_mux$49"/>
    <g transform="translate(0,10)" s:x="0" s:y="10" s:pid="in0" id="port_$auto$opt_reduce.cc:128:opt_mux$49~A">
      <text x="-3" y="-4" class="inputPortLabel cell_$auto$opt_reduce.cc:128:opt_mux$49">A</text>
    </g>
    <g transform="translate(30,10)" s:x="30" s:y="10" s:pid="out0" id="port_$auto$opt_reduce.cc:128:opt_mux$49~Y">
      <text x="5" y="-4" style="fill:#000; stroke:none" class="cell_$auto$opt_reduce.cc:128:opt_mux$49">Y</text>
    </g>
  </g>
  <g s:type="generic" transform="translate(1198,569)" s:width="30" s:height="40" id="cell_\100">
    <text x="15" y="-4" class="nodelabel cell_\100" s:attribute="ref">$dffsr</text>
    <rect width="30" height="80" s:generic="body" class="cell_\100"/>
    <g transform="translate(0,10)" s:x="0" s:y="10" s:pid="in0" id="port_\100~CLK">
      <text x="-3" y="-4" class="inputPortLabel cell_\100">CLK</text>
    </g>
    <g transform="translate(0,30)" s:x="0" s:y="10" s:pid="in0" id="port_\100~CLR">
      <text x="-3" y="-4" class="inputPortLabel cell_\100">CLR</text>
    </g>
    <g transform="translate(0,50)" s:x="0" s:y="10" s:pid="in0" id="port_\100~D">
      <text x="-3" y="-4" class="inputPortLabel cell_\100">D</text>
    </g>
    <g transform="translate(0,70)" s:x="0" s:y="10" s:pid="in0" id="port_\100~SET">
      <text x="-3" y="-4" class="inputPortLabel cell_\100">SET</text>
    </g>
    <g transform="translate(30,10)" s:x="30" s:y="10" s:pid="out0" id="port_\100~Q">
      <text x="5" y="-4" style="fill:#000; stroke:none" class="cell_\100">Q</text>
    </g>
  </g>
  <g s:type="eq" transform="translate(1378.6666666666667,774.5)" s:width="25" s:height="25" id="cell_\13">
    <s:alias val="$eq"/>
    <circle r="12.5" cx="12.5" cy="12.5" class="cell_\13"/>
    <line x1="7.5" x2="17.5" y1="10" y2="10" class="cell_\13"/>
    <line x1="7.5" x2="17.5" y1="15" y2="15" class="cell_\13"/>
    <g s:x="3" s:y="5" s:pid="A"/>
    <g s:x="3" s:y="20" s:pid="B"/>
    <g s:x="25" s:y="12.5" s:pid="Y"/>
  </g>
  <g s:type="eq" transform="translate(313.66666666666663,1243.5)" s:width="25" s:height="25" id="cell_\15">
    <s:alias val="$eq"/>
    <circle r="12.5" cx="12.5" cy="12.5" class="cell_\15"/>
    <line x1="7.5" x2="17.5" y1="10" y2="10" class="cell_\15"/>
    <line x1="7.5" x2="17.5" y1="15" y2="15" class="cell_\15"/>
    <g s:x="3" s:y="5" s:pid="A"/>
    <g s:x="3" s:y="20" s:pid="B"/>
    <g s:x="25" s:y="12.5" s:pid="Y"/>
  </g>
  <g s:type="and" transform="translate(1493,528)" s:width="30" s:height="25" id="cell_\16">
    <s:alias val="$and"/>
    <s:alias val="$logic_and"/>
    <s:alias val="$_AND_"/>
    <path d="M0,0 L0,25 L15,25 A15 12.5 0 0 0 15,0 Z" class="cell_\16"/>
    <g s:x="0" s:y="5" s:pid="A"/>
    <g s:x="0" s:y="20" s:pid="B"/>
    <g s:x="30" s:y="12.5" s:pid="Y"/>
  </g>
  <g s:type="mux" transform="translate(1572.6666666666667,421.5)" s:width="20" s:height="40" id="cell_\17">
    <s:alias val="$pmux"/>
    <s:alias val="$mux"/>
    <s:alias val="$_MUX_"/>
    <path d="M0,0 L20,10 L20,30 L0,40 Z" class="cell_\17"/>
    <g s:x="0" s:y="10" s:pid="A"/>
    <g s:x="0" s:y="30" s:pid="B"/>
    <g s:x="10" s:y="35" s:pid="S"/>
    <g s:x="20" s:y="20" s:pid="Y"/>
  </g>
  <g s:type="eq" transform="translate(392,1300.5)" s:width="25" s:height="25" id="cell_\20">
    <s:alias val="$eq"/>
    <circle r="12.5" cx="12.5" cy="12.5" class="cell_\20"/>
    <line x1="7.5" x2="17.5" y1="10" y2="10" class="cell_\20"/>
    <line x1="7.5" x2="17.5" y1="15" y2="15" class="cell_\20"/>
    <g s:x="3" s:y="5" s:pid="A"/>
    <g s:x="3" s:y="20" s:pid="B"/>
    <g s:x="25" s:y="12.5" s:pid="Y"/>
  </g>
  <g s:type="mux" transform="translate(1572.6666666666667,1371)" s:width="20" s:height="40" id="cell_\21">
    <s:alias val="$pmux"/>
    <s:alias val="$mux"/>
    <s:alias val="$_MUX_"/>
    <path d="M0,0 L20,10 L20,30 L0,40 Z" class="cell_\21"/>
    <g s:x="0" s:y="10" s:pid="A"/>
    <g s:x="0" s:y="30" s:pid="B"/>
    <g s:x="10" s:y="35" s:pid="S"/>
    <g s:x="20" s:y="20" s:pid="Y"/>
  </g>
  <g s:type="mux" transform="translate(1496.3333333333333,33)" s:width="20" s:height="40" id="cell_\28">
    <s:alias val="$pmux"/>
    <s:alias val="$mux"/>
    <s:alias val="$_MUX_"/>
    <path d="M0,0 L20,10 L20,30 L0,40 Z" class="cell_\28"/>
    <g s:x="0" s:y="10" s:pid="A"/>
    <g s:x="0" s:y="30" s:pid="B"/>
    <g s:x="10" s:y="35" s:pid="S"/>
    <g s:x="20" s:y="20" s:pid="Y"/>
  </g>
  <g s:type="not" transform="translate(312,981.5)" s:width="30" s:height="20" id="cell_\30">
    <s:alias val="$_NOT_"/>
    <s:alias val="$not"/>
    <s:alias val="$logic_not"/>
    <path d="M0,0 L0,20 L20,10 Z" class="cell_\30"/>
    <circle cx="23" cy="10" r="3" class="cell_\30"/>
    <g s:x="0" s:y="10" s:pid="A"/>
    <g s:x="25" s:y="10" s:pid="Y"/>
  </g>
  <g s:type="eq" transform="translate(785.6666666666666,388)" s:width="25" s:height="25" id="cell_\32">
    <s:alias val="$eq"/>
    <circle r="12.5" cx="12.5" cy="12.5" class="cell_\32"/>
    <line x1="7.5" x2="17.5" y1="10" y2="10" class="cell_\32"/>
    <line x1="7.5" x2="17.5" y1="15" y2="15" class="cell_\32"/>
    <g s:x="3" s:y="5" s:pid="A"/>
    <g s:x="3" s:y="20" s:pid="B"/>
    <g s:x="25" s:y="12.5" s:pid="Y"/>
  </g>
  <g s:type="add" transform="translate(1647,869.5)" s:width="25" s:height="25" id="cell_\34">
    <s:alias val="$add"/>
    <circle r="12.5" cx="12.5" cy="12.5" class="cell_\34"/>
    <line x1="7.5" x2="17.5" y1="12.5" y2="12.5" class="cell_\34"/>
    <line x1="12.5" x2="12.5" y1="7.5" y2="17.5" class="cell_\34"/>
    <g s:x="3" s:y="5" s:pid="A"/>
    <g s:x="3" s:y="20" s:pid="B"/>
    <g s:x="25" s:y="12.5" s:pid="Y"/>
  </g>
  <g s:type="mux" transform="translate(1496.3333333333333,93)" s:width="20" s:height="40" id="cell_\37">
    <s:alias val="$pmux"/>
    <s:alias val="$mux"/>
    <s:alias val="$_MUX_"/>
    <path d="M0,0 L20,10 L20,30 L0,40 Z" class="cell_\37"/>
    <g s:x="0" s:y="10" s:pid="A"/>
    <g s:x="0" s:y="30" s:pid="B"/>
    <g s:x="10" s:y="35" s:pid="S"/>
    <g s:x="20" s:y="20" s:pid="Y"/>
  </g>
  <g s:type="mux" transform="translate(942.3333333333334,1070.5)" s:width="20" s:height="40" id="cell_\39">
    <s:alias val="$pmux"/>
    <s:alias val="$mux"/>
    <s:alias val="$_MUX_"/>
    <path d="M0,0 L20,10 L20,30 L0,40 Z" class="cell_\39"/>
    <g s:x="0" s:y="10" s:pid="A"/>
    <g s:x="0" s:y="30" s:pid="B"/>
    <g s:x="10" s:y="35" s:pid="S"/>
    <g s:x="20" s:y="20" s:pid="Y"/>
  </g>
  <g s:type="eq" transform="translate(392,1163.5)" s:width="25" s:height="25" id="cell_\41">
    <s:alias val="$eq"/>
    <circle r="12.5" cx="12.5" cy="12.5" class="cell_\41"/>
    <line x1="7.5" x2="17.5" y1="10" y2="10" class="cell_\41"/>
    <line x1="7.5" x2="17.5" y1="15" y2="15" class="cell_\41"/>
    <g s:x="3" s:y="5" s:pid="A"/>
    <g s:x="3" s:y="20" s:pid="B"/>
    <g s:x="25" s:y="12.5" s:pid="Y"/>
  </g>
  <g s:type="eq" transform="translate(1292,687)" s:width="25" s:height="25" id="cell_\45">
    <s:alias val="$eq"/>
    <circle r="12.5" cx="12.5" cy="12.5" class="cell_\45"/>
    <line x1="7.5" x2="17.5" y1="10" y2="10" class="cell_\45"/>
    <line x1="7.5" x2="17.5" y1="15" y2="15" class="cell_\45"/>
    <g s:x="3" s:y="5" s:pid="A"/>
    <g s:x="3" s:y="20" s:pid="B"/>
    <g s:x="25" s:y="12.5" s:pid="Y"/>
  </g>
  <g s:type="mux" transform="translate(1380.3333333333333,274)" s:width="20" s:height="40" id="cell_\48">
    <s:alias val="$pmux"/>
    <s:alias val="$mux"/>
    <s:alias val="$_MUX_"/>
    <path d="M0,0 L20,10 L20,30 L0,40 Z" class="cell_\48"/>
    <g s:x="0" s:y="10" s:pid="A"/>
    <g s:x="0" s:y="30" s:pid="B"/>
    <g s:x="10" s:y="35" s:pid="S"/>
    <g s:x="20" s:y="20" s:pid="Y"/>
  </g>
  <g s:type="mux" transform="translate(1496.3333333333333,153)" s:width="20" s:height="40" id="cell_\52">
    <s:alias val="$pmux"/>
    <s:alias val="$mux"/>
    <s:alias val="$_MUX_"/>
    <path d="M0,0 L20,10 L20,30 L0,40 Z" class="cell_\52"/>
    <g s:x="0" s:y="10" s:pid="A"/>
    <g s:x="0" s:y="30" s:pid="B"/>
    <g s:x="10" s:y="35" s:pid="S"/>
    <g s:x="20" s:y="20" s:pid="Y"/>
  </g>
  <g s:type="add" transform="translate(1494.6666666666667,655.5)" s:width="25" s:height="25" id="cell_\58">
    <s:alias val="$add"/>
    <circle r="12.5" cx="12.5" cy="12.5" class="cell_\58"/>
    <line x1="7.5" x2="17.5" y1="12.5" y2="12.5" class="cell_\58"/>
    <line x1="12.5" x2="12.5" y1="7.5" y2="17.5" class="cell_\58"/>
    <g s:x="3" s:y="5" s:pid="A"/>
    <g s:x="3" s:y="20" s:pid="B"/>
    <g s:x="25" s:y="12.5" s:pid="Y"/>
  </g>
  <g s:type="mux" transform="translate(1572.6666666666667,569.5)" s:width="20" s:height="40" id="cell_\59">
    <s:alias val="$pmux"/>
    <s:alias val="$mux"/>
    <s:alias val="$_MUX_"/>
    <path d="M0,0 L20,10 L20,30 L0,40 Z" class="cell_\59"/>
    <g s:x="0" s:y="10" s:pid="A"/>
    <g s:x="0" s:y="30" s:pid="B"/>
    <g s:x="10" s:y="35" s:pid="S"/>
    <g s:x="20" s:y="20" s:pid="Y"/>
  </g>
  <g s:type="mux" transform="translate(1496.3333333333333,213)" s:width="20" s:height="40" id="cell_\68">
    <s:alias val="$pmux"/>
    <s:alias val="$mux"/>
    <s:alias val="$_MUX_"/>
    <path d="M0,0 L20,10 L20,30 L0,40 Z" class="cell_\68"/>
    <g s:x="0" s:y="10" s:pid="A"/>
    <g s:x="0" s:y="30" s:pid="B"/>
    <g s:x="10" s:y="35" s:pid="S"/>
    <g s:x="20" s:y="20" s:pid="Y"/>
  </g>
  <g s:type="mux" transform="translate(1647,33)" s:width="20" s:height="40" id="cell_\75">
    <s:alias val="$pmux"/>
    <s:alias val="$mux"/>
    <s:alias val="$_MUX_"/>
    <path d="M0,0 L20,10 L20,30 L0,40 Z" class="cell_\75"/>
    <g s:x="0" s:y="10" s:pid="A"/>
    <g s:x="0" s:y="30" s:pid="B"/>
    <g s:x="10" s:y="35" s:pid="S"/>
    <g s:x="20" s:y="20" s:pid="Y"/>
  </g>
  <g s:type="mux" transform="translate(1197.5,894.5)" s:width="20" s:height="40" id="cell_\78">
    <s:alias val="$pmux"/>
    <s:alias val="$mux"/>
    <s:alias val="$_MUX_"/>
    <path d="M0,0 L20,10 L20,30 L0,40 Z" class="cell_\78"/>
    <g s:x="0" s:y="10" s:pid="A"/>
    <g s:x="0" s:y="30" s:pid="B"/>
    <g s:x="10" s:y="35" s:pid="S"/>
    <g s:x="20" s:y="20" s:pid="Y"/>
  </g>
  <g s:type="and" transform="translate(1493,1348.5)" s:width="30" s:height="25" id="cell_\8">
    <s:alias val="$and"/>
    <s:alias val="$logic_and"/>
    <s:alias val="$_AND_"/>
    <path d="M0,0 L0,25 L15,25 A15 12.5 0 0 0 15,0 Z" class="cell_\8"/>
    <g s:x="0" s:y="5" s:pid="A"/>
    <g s:x="0" s:y="20" s:pid="B"/>
    <g s:x="30" s:y="12.5" s:pid="Y"/>
  </g>
  <g s:type="mux" transform="translate(791,836.5)" s:width="20" s:height="40" id="cell_\82">
    <s:alias val="$pmux"/>
    <s:alias val="$mux"/>
    <s:alias val="$_MUX_"/>
    <path d="M0,0 L20,10 L20,30 L0,40 Z" class="cell_\82"/>
    <g s:x="0" s:y="10" s:pid="A"/>
    <g s:x="0" s:y="30" s:pid="B"/>
    <g s:x="10" s:y="35" s:pid="S"/>
    <g s:x="20" s:y="20" s:pid="Y"/>
  </g>
  <g s:type="mux" transform="translate(1572.6666666666667,950.5)" s:width="20" s:height="40" id="cell_\9">
    <s:alias val="$pmux"/>
    <s:alias val="$mux"/>
    <s:alias val="$_MUX_"/>
    <path d="M0,0 L20,10 L20,30 L0,40 Z" class="cell_\9"/>
    <g s:x="0" s:y="10" s:pid="A"/>
    <g s:x="0" s:y="30" s:pid="B"/>
    <g s:x="10" s:y="35" s:pid="S"/>
    <g s:x="20" s:y="20" s:pid="Y"/>
  </g>
  <g s:type="generic" transform="translate(239,1158)" s:width="30" s:height="40" id="cell_\98">
    <text x="15" y="-4" class="nodelabel cell_\98" s:attribute="ref">$adff</text>
    <rect width="30" height="60" s:generic="body" class="cell_\98"/>
    <g transform="translate(0,10)" s:x="0" s:y="10" s:pid="in0" id="port_\98~ARST">
      <text x="-3" y="-4" class="inputPortLabel cell_\98">ARST</text>
    </g>
    <g transform="translate(0,30)" s:x="0" s:y="10" s:pid="in0" id="port_\98~CLK">
      <text x="-3" y="-4" class="inputPortLabel cell_\98">CLK</text>
    </g>
    <g transform="translate(0,50)" s:x="0" s:y="10" s:pid="in0" id="port_\98~D">
      <text x="-3" y="-4" class="inputPortLabel cell_\98">D</text>
    </g>
    <g transform="translate(30,10)" s:x="30" s:y="10" s:pid="out0" id="port_\98~Q">
      <text x="5" y="-4" style="fill:#000; stroke:none" class="cell_\98">Q</text>
    </g>
  </g>
  <g s:type="generic" transform="translate(1296,864)" s:width="30" s:height="40" id="cell_\99">
    <text x="15" y="-4" class="nodelabel cell_\99" s:attribute="ref">$adff</text>
    <rect width="30" height="60" s:generic="body" class="cell_\99"/>
    <g transform="translate(0,10)" s:x="0" s:y="10" s:pid="in0" id="port_\99~ARST">
      <text x="-3" y="-4" class="inputPortLabel cell_\99">ARST</text>
    </g>
    <g transform="translate(0,30)" s:x="0" s:y="10" s:pid="in0" id="port_\99~CLK">
      <text x="-3" y="-4" class="inputPortLabel cell_\99">CLK</text>
    </g>
    <g transform="translate(0,50)" s:x="0" s:y="10" s:pid="in0" id="port_\99~D">
      <text x="-3" y="-4" class="inputPortLabel cell_\99">D</text>
    </g>
    <g transform="translate(30,10)" s:x="30" s:y="10" s:pid="out0" id="port_\99~Q">
      <text x="5" y="-4" style="fill:#000; stroke:none" class="cell_\99">Q</text>
    </g>
  </g>
  <g s:type="inputExt" transform="translate(144,1178.5)" s:width="30" s:height="20" id="cell_Clk">
    <text x="15" y="-4" class="nodelabel cell_Clk" s:attribute="ref">Clk</text>
    <s:alias val="$_inputExt_"/>
    <path d="M0,0 L0,20 L15,20 L30,10 L15,0 Z" class="cell_Clk"/>
    <g s:x="28" s:y="10" s:pid="Y"/>
  </g>
  <g s:type="inputExt" transform="translate(144,815.5)" s:width="30" s:height="20" id="cell_Reset">
    <text x="15" y="-4" class="nodelabel cell_Reset" s:attribute="ref">Reset</text>
    <s:alias val="$_inputExt_"/>
    <path d="M0,0 L0,20 L15,20 L30,10 L15,0 Z" class="cell_Reset"/>
    <g s:x="28" s:y="10" s:pid="Y"/>
  </g>
  <g s:type="inputExt" transform="translate(1369,719.5)" s:width="30" s:height="20" id="cell_LineRD_in">
    <text x="15" y="-4" class="nodelabel cell_LineRD_in" s:attribute="ref">LineRD_in</text>
    <s:alias val="$_inputExt_"/>
    <path d="M0,0 L0,20 L15,20 L30,10 L15,0 Z" class="cell_LineRD_in"/>
    <g s:x="28" s:y="10" s:pid="Y"/>
  </g>
  <g s:type="outputExt" transform="translate(1628,960.5)" s:width="30" s:height="20" id="cell_Valid_out">
    <text x="15" y="-4" class="nodelabel cell_Valid_out" s:attribute="ref">Valid_out</text>
    <s:alias val="$_outputExt_"/>
    <path d="M30,0 L30,20 L15,20 L0,10 L15,0 Z" class="cell_Valid_out"/>
    <g s:x="0" s:y="10" s:pid="A"/>
  </g>
  <g s:type="outputExt" transform="translate(1634,1381)" s:width="30" s:height="20" id="cell_Code_out">
    <text x="15" y="-4" class="nodelabel cell_Code_out" s:attribute="ref">Code_out</text>
    <s:alias val="$_outputExt_"/>
    <path d="M30,0 L30,20 L15,20 L0,10 L15,0 Z" class="cell_Code_out"/>
    <g s:x="0" s:y="10" s:pid="A"/>
  </g>
  <g s:type="outputExt" transform="translate(1628,431.5)" s:width="30" s:height="20" id="cell_Store_out">
    <text x="15" y="-4" class="nodelabel cell_Store_out" s:attribute="ref">Store_out</text>
    <s:alias val="$_outputExt_"/>
    <path d="M30,0 L30,20 L15,20 L0,10 L15,0 Z" class="cell_Store_out"/>
    <g s:x="0" s:y="10" s:pid="A"/>
  </g>
  <g s:type="constant" transform="translate(880,655.5)" s:width="30" s:height="20" id="cell_0000">
    <text x="15" y="-4" class="nodelabel cell_0000" s:attribute="ref">0x0</text>
    <s:alias val="$_constant_"/>
    <rect width="30" height="20" class="cell_0000"/>
    <g s:x="30" s:y="10" s:pid="Y"/>
  </g>
  <g s:type="constant" transform="translate(1296,784.5)" s:width="30" s:height="20" id="cell_01010111">
    <text x="15" y="-4" class="nodelabel cell_01010111" s:attribute="ref">0x57</text>
    <s:alias val="$_constant_"/>
    <rect width="30" height="20" class="cell_01010111"/>
    <g s:x="30" s:y="10" s:pid="Y"/>
  </g>
  <g s:type="constant" transform="translate(239,600.5)" s:width="30" s:height="20" id="cell_11">
    <text x="15" y="-4" class="nodelabel cell_11" s:attribute="ref">11</text>
    <s:alias val="$_constant_"/>
    <rect width="30" height="20" class="cell_11"/>
    <g s:x="30" s:y="10" s:pid="Y"/>
  </g>
  <g s:type="constant" transform="translate(1493,725.5)" s:width="30" s:height="20" id="cell_0">
    <text x="15" y="-4" class="nodelabel cell_0" s:attribute="ref">0</text>
    <s:alias val="$_constant_"/>
    <rect width="30" height="20" class="cell_0"/>
    <g s:x="30" s:y="10" s:pid="Y"/>
  </g>
  <g s:type="constant" transform="translate(1493,600.5)" s:width="30" s:height="20" id="cell_1">
    <text x="15" y="-4" class="nodelabel cell_1" s:attribute="ref">1</text>
    <s:alias val="$_constant_"/>
    <rect width="30" height="20" class="cell_1"/>
    <g s:x="30" s:y="10" s:pid="Y"/>
  </g>
  <g s:type="constant" transform="translate(312,325)" s:width="30" s:height="20" id="cell_10">
    <text x="15" y="-4" class="nodelabel cell_10" s:attribute="ref">10</text>
    <s:alias val="$_constant_"/>
    <rect width="30" height="20" class="cell_10"/>
    <g s:x="30" s:y="10" s:pid="Y"/>
  </g>
  <g s:type="constant" transform="translate(312,33)" s:width="30" s:height="20" id="cell_01">
    <text x="15" y="-4" class="nodelabel cell_01" s:attribute="ref">01</text>
    <s:alias val="$_constant_"/>
    <rect width="30" height="20" class="cell_01"/>
    <g s:x="30" s:y="10" s:pid="Y"/>
  </g>
  <g s:type="constant" transform="translate(1369,233)" s:width="30" s:height="20" id="cell_00">
    <text x="15" y="-4" class="nodelabel cell_00" s:attribute="ref">00</text>
    <s:alias val="$_constant_"/>
    <rect width="30" height="20" class="cell_00"/>
    <g s:x="30" s:y="10" s:pid="Y"/>
  </g>
  <g s:type="constant" transform="translate(713,398)" s:width="30" s:height="20" id="cell_10101110">
    <text x="15" y="-4" class="nodelabel cell_10101110" s:attribute="ref">0xae</text>
    <s:alias val="$_constant_"/>
    <rect width="30" height="20" class="cell_10101110"/>
    <g s:x="30" s:y="10" s:pid="Y"/>
  </g>
  <g s:type="constant" transform="translate(1563,895.5)" s:width="30" s:height="20" id="cell_00000001">
    <text x="15" y="-4" class="nodelabel cell_00000001" s:attribute="ref">0x1</text>
    <s:alias val="$_constant_"/>
    <rect width="30" height="20" class="cell_00000001"/>
    <g s:x="30" s:y="10" s:pid="Y"/>
  </g>
  <g s:type="constant" transform="translate(783,1090.5)" s:width="30" s:height="20" id="cell_00000000">
    <text x="15" y="-4" class="nodelabel cell_00000000" s:attribute="ref">0x0</text>
    <s:alias val="$_constant_"/>
    <rect width="30" height="20" class="cell_00000000"/>
    <g s:x="30" s:y="10" s:pid="Y"/>
  </g>
  <g s:type="constant" transform="translate(1198,697)" s:width="30" s:height="20" id="cell_1000">
    <text x="15" y="-4" class="nodelabel cell_1000" s:attribute="ref">0x8</text>
    <s:alias val="$_constant_"/>
    <rect width="30" height="20" class="cell_1000"/>
    <g s:x="30" s:y="10" s:pid="Y"/>
  </g>
  <g s:type="constant" transform="translate(1369,844.5)" s:width="30" s:height="20" id="cell_0001">
    <text x="15" y="-4" class="nodelabel cell_0001" s:attribute="ref">0x1</text>
    <s:alias val="$_constant_"/>
    <rect width="30" height="20" class="cell_0001"/>
    <g s:x="30" s:y="10" s:pid="Y"/>
  </g>
  <g s:type="join" transform="translate(401.3333333333333,1225.5)" s:width="4" s:height="40" id="cell_$join$,24,25,">
    <rect width="5" height="40" class="splitjoinBody" s:generic="body"/>
    <s:alias val="$_join_"/>
    <g s:x="5" s:y="20" s:pid="out"/>
    <g transform="translate(0,10)" s:x="0" s:y="10" s:pid="in0">
      <text x="-3" y="-4" class="inputPortLabel">0</text>
    </g>
    <g transform="translate(0,30)" s:x="0" s:y="10" s:pid="in0">
      <text x="-3" y="-4" class="inputPortLabel">1</text>
    </g>
  </g>
  <g s:type="join" transform="translate(793,1145.5)" s:width="4" s:height="40" id="cell_$join$,27,28,25,">
    <rect width="5" height="60" class="splitjoinBody" s:generic="body"/>
    <s:alias val="$_join_"/>
    <g s:x="5" s:y="20" s:pid="out"/>
    <g transform="translate(0,10)" s:x="0" s:y="10" s:pid="in0">
      <text x="-3" y="-4" class="inputPortLabel">0</text>
    </g>
    <g transform="translate(0,30)" s:x="0" s:y="10" s:pid="in0">
      <text x="-3" y="-4" class="inputPortLabel">1</text>
    </g>
    <g transform="translate(0,50)" s:x="0" s:y="10" s:pid="in0">
      <text x="-3" y="-4" class="inputPortLabel">2</text>
    </g>
  </g>
  <g s:type="join" transform="translate(1582,42.5)" s:width="4" s:height="40" id="cell_$join$,46,47,57,58,70,71,80,81,">
    <rect width="5" height="80" class="splitjoinBody" s:generic="body"/>
    <s:alias val="$_join_"/>
    <g s:x="5" s:y="20" s:pid="out"/>
    <g transform="translate(0,10)" s:x="0" s:y="10" s:pid="in0">
      <text x="-3" y="-4" class="inputPortLabel">0:1</text>
    </g>
    <g transform="translate(0,30)" s:x="0" s:y="10" s:pid="in0">
      <text x="-3" y="-4" class="inputPortLabel">2:3</text>
    </g>
    <g transform="translate(0,50)" s:x="0" s:y="10" s:pid="in0">
      <text x="-3" y="-4" class="inputPortLabel">4:5</text>
    </g>
    <g transform="translate(0,70)" s:x="0" s:y="10" s:pid="in0">
      <text x="-3" y="-4" class="inputPortLabel">6:7</text>
    </g>
  </g>
  <g s:type="join" transform="translate(1578,346.5)" s:width="4" s:height="40" id="cell_$join$,24,28,27,25,">
    <rect width="5" height="40" class="splitjoinBody" s:generic="body"/>
    <s:alias val="$_join_"/>
    <g s:x="5" s:y="20" s:pid="out"/>
    <g transform="translate(0,10)" s:x="0" s:y="10" s:pid="in0">
      <text x="-3" y="-4" class="inputPortLabel">0</text>
    </g>
    <g transform="translate(0,30)" s:x="0" s:y="10" s:pid="in0">
      <text x="-3" y="-4" class="inputPortLabel">1:2</text>
    </g>
  </g>
  <g s:type="join" transform="translate(538.3333333333333,838.5)" s:width="4" s:height="40" id="cell_$join$,28,27,">
    <rect width="5" height="40" class="splitjoinBody" s:generic="body"/>
    <s:alias val="$_join_"/>
    <g s:x="5" s:y="20" s:pid="out"/>
    <g transform="translate(0,10)" s:x="0" s:y="10" s:pid="in0">
      <text x="-3" y="-4" class="inputPortLabel">0</text>
    </g>
    <g transform="translate(0,30)" s:x="0" s:y="10" s:pid="in0">
      <text x="-3" y="-4" class="inputPortLabel">1</text>
    </g>
  </g>
  <g s:type="join" transform="translate(126,24)" s:width="4" s:height="40" id="cell_$join$,x,x,x,x,x,x,x,x,">
    <rect width="5" height="40" class="splitjoinBody" s:generic="body"/>
    <s:alias val="$_join_"/>
    <g s:x="5" s:y="20" s:pid="out"/>
    <g transform="translate(0,10)" s:x="0" s:y="10" s:pid="in0">
      <text x="-3" y="-4" class="inputPortLabel">0:3</text>
    </g>
  </g>
  <g s:type="join" transform="translate(66,14)" s:width="4" s:height="40" id="cell_$join$,x,x,x,x,">
    <rect width="5" height="40" class="splitjoinBody" s:generic="body"/>
    <s:alias val="$_join_"/>
    <g s:x="5" s:y="20" s:pid="out"/>
    <g transform="translate(0,10)" s:x="0" s:y="10" s:pid="in0">
      <text x="-3" y="-4" class="inputPortLabel">0:1</text>
    </g>
    <g transform="translate(0,30)" s:x="0" s:y="10" s:pid="in0">
      <text x="-3" y="-4" class="inputPortLabel">2:3</text>
    </g>
  </g>
  <g s:type="join" transform="translate(1138,904)" s:width="4" s:height="40" id="cell_$join$,140,141,142,143,144,145,146,147,59,60,61,62,63,64,65,66,">
    <rect width="5" height="40" class="splitjoinBody" s:generic="body"/>
    <s:alias val="$_join_"/>
    <g s:x="5" s:y="20" s:pid="out"/>
    <g transform="translate(0,10)" s:x="0" s:y="10" s:pid="in0">
      <text x="-3" y="-4" class="inputPortLabel">0:7</text>
    </g>
    <g transform="translate(0,30)" s:x="0" s:y="10" s:pid="in0">
      <text x="-3" y="-4" class="inputPortLabel">8:15</text>
    </g>
  </g>
  <g s:type="join" transform="translate(1132.3333333333335,981)" s:width="4" s:height="40" id="cell_$join$,24,29,">
    <rect width="5" height="40" class="splitjoinBody" s:generic="body"/>
    <s:alias val="$_join_"/>
    <g s:x="5" s:y="20" s:pid="out"/>
    <g transform="translate(0,10)" s:x="0" s:y="10" s:pid="in0">
      <text x="-3" y="-4" class="inputPortLabel">0</text>
    </g>
    <g transform="translate(0,30)" s:x="0" s:y="10" s:pid="in0">
      <text x="-3" y="-4" class="inputPortLabel">1</text>
    </g>
  </g>
  <g s:type="join" transform="translate(1647,486.5)" s:width="4" s:height="40" id="cell_$join$,93,94,95,96,8,9,10,11,76,77,78,79,">
    <rect width="5" height="60" class="splitjoinBody" s:generic="body"/>
    <s:alias val="$_join_"/>
    <g s:x="5" s:y="20" s:pid="out"/>
    <g transform="translate(0,10)" s:x="0" s:y="10" s:pid="in0">
      <text x="-3" y="-4" class="inputPortLabel">0:3</text>
    </g>
    <g transform="translate(0,30)" s:x="0" s:y="10" s:pid="in0">
      <text x="-3" y="-4" class="inputPortLabel">4:7</text>
    </g>
    <g transform="translate(0,50)" s:x="0" s:y="10" s:pid="in0">
      <text x="-3" y="-4" class="inputPortLabel">8:11</text>
    </g>
  </g>
  <g s:type="join" transform="translate(724,1012.5)" s:width="4" s:height="40" id="cell_$join$,26,28,27,">
    <rect width="5" height="40" class="splitjoinBody" s:generic="body"/>
    <s:alias val="$_join_"/>
    <g s:x="5" s:y="20" s:pid="out"/>
    <g transform="translate(0,10)" s:x="0" s:y="10" s:pid="in0">
      <text x="-3" y="-4" class="inputPortLabel">0</text>
    </g>
    <g transform="translate(0,30)" s:x="0" s:y="10" s:pid="in0">
      <text x="-3" y="-4" class="inputPortLabel">1:2</text>
    </g>
  </g>
  <line x1="811" x2="843" y1="856.5" y2="856.5" class="net_8,9,10,11"/>
  <line x1="843" x2="843" y1="856.5" y2="845.5" class="net_8,9,10,11"/>
  <circle cx="843" cy="845.5" r="2" style="fill:#000" class="net_8,9,10,11"/>
  <line x1="843" x2="1124" y1="845.5" y2="845.5" class="net_8,9,10,11"/>
  <line x1="811" x2="843" y1="856.5" y2="856.5" class="net_8,9,10,11"/>
  <line x1="843" x2="843" y1="856.5" y2="600.5" class="net_8,9,10,11"/>
  <circle cx="843" cy="600.5" r="2" style="fill:#000" class="net_8,9,10,11"/>
  <line x1="843" x2="963.5" y1="600.5" y2="600.5" class="net_8,9,10,11"/>
  <line x1="811" x2="843" y1="856.5" y2="856.5" class="net_8,9,10,11"/>
  <line x1="843" x2="843" y1="856.5" y2="685.5" class="net_8,9,10,11"/>
  <line x1="843" x2="1154" y1="685.5" y2="685.5" class="net_8,9,10,11"/>
  <line x1="1154" x2="1154" y1="685.5" y2="619.5" class="net_8,9,10,11"/>
  <circle cx="843" cy="685.5" r="2" style="fill:#000" class="net_8,9,10,11"/>
  <line x1="1154" x2="1198" y1="619.5" y2="619.5" class="net_8,9,10,11"/>
  <line x1="811" x2="843" y1="856.5" y2="856.5" class="net_8,9,10,11"/>
  <line x1="843" x2="843" y1="856.5" y2="517" class="net_8,9,10,11"/>
  <line x1="843" x2="1647" y1="517" y2="517" class="net_8,9,10,11"/>
  <line x1="910" x2="1094" y1="665.5" y2="665.5" class="net_93,94,95,96"/>
  <line x1="1094" x2="1094" y1="665.5" y2="865.5" class="net_93,94,95,96"/>
  <circle cx="1094" cy="665.5" r="2" style="fill:#000" class="net_93,94,95,96"/>
  <line x1="1094" x2="1124" y1="865.5" y2="865.5" class="net_93,94,95,96"/>
  <line x1="910" x2="1094" y1="665.5" y2="665.5" class="net_93,94,95,96"/>
  <line x1="1094" x2="1094" y1="665.5" y2="620.5" class="net_93,94,95,96"/>
  <circle cx="1094" cy="620.5" r="2" style="fill:#000" class="net_93,94,95,96"/>
  <line x1="1094" x2="1124" y1="620.5" y2="620.5" class="net_93,94,95,96"/>
  <line x1="910" x2="1094" y1="665.5" y2="665.5" class="net_93,94,95,96"/>
  <line x1="1094" x2="1094" y1="665.5" y2="497" class="net_93,94,95,96"/>
  <line x1="1094" x2="1647" y1="497" y2="497" class="net_93,94,95,96"/>
  <line x1="172" x2="457" y1="825.5" y2="825.5" class="net_3"/>
  <line x1="457" x2="457" y1="825.5" y2="888.5" class="net_3"/>
  <line x1="457" x2="698" y1="888.5" y2="888.5" class="net_3"/>
  <line x1="698" x2="698" y1="888.5" y2="825.5" class="net_3"/>
  <line x1="698" x2="773" y1="825.5" y2="825.5" class="net_3"/>
  <line x1="773" x2="773" y1="825.5" y2="886.5" class="net_3"/>
  <line x1="773" x2="1134" y1="886.5" y2="886.5" class="net_3"/>
  <circle cx="457" cy="825.5" r="2" style="fill:#000" class="net_3"/>
  <circle cx="698" cy="825.5" r="2" style="fill:#000" class="net_3"/>
  <circle cx="773" cy="825.5" r="2" style="fill:#000" class="net_3"/>
  <line x1="1134" x2="1134" y1="886.5" y2="870.5" class="net_3"/>
  <line x1="172" x2="1134" y1="825.5" y2="825.5" class="net_3"/>
  <line x1="1134" x2="1134" y1="825.5" y2="625.5" class="net_3"/>
  <line x1="172" x2="204" y1="825.5" y2="825.5" class="net_3"/>
  <line x1="204" x2="204" y1="825.5" y2="1168.5" class="net_3"/>
  <circle cx="204" cy="825.5" r="2" style="fill:#000" class="net_3"/>
  <circle cx="204" cy="1168.5" r="2" style="fill:#000" class="net_3"/>
  <line x1="204" x2="239" y1="1168.5" y2="1168.5" class="net_3"/>
  <line x1="172" x2="204" y1="825.5" y2="825.5" class="net_3"/>
  <line x1="204" x2="204" y1="825.5" y2="1346.5" class="net_3"/>
  <line x1="204" x2="1246" y1="1346.5" y2="1346.5" class="net_3"/>
  <line x1="1246" x2="1246" y1="1346.5" y2="874.5" class="net_3"/>
  <line x1="1246" x2="1296" y1="874.5" y2="874.5" class="net_3"/>
  <line x1="988.5" x2="1124" y1="600.5" y2="600.5" class="net_16,17,18,19"/>
  <line x1="407.3333333333333" x2="437" y1="1246" y2="1246" class="net_24,25"/>
  <line x1="437" x2="437" y1="1246" y2="1023" class="net_24,25"/>
  <line x1="437" x2="474" y1="1023" y2="1023" class="net_24,25"/>
  <line x1="799" x2="853" y1="1166" y2="1166" class="net_27,28,25"/>
  <line x1="853" x2="853" y1="1166" y2="1023" class="net_27,28,25"/>
  <line x1="853" x2="880" y1="1023" y2="1023" class="net_27,28,25"/>
  <line x1="172" x2="184" y1="1188.5" y2="1188.5" class="net_2"/>
  <line x1="184" x2="184" y1="1188.5" y2="579.5" class="net_2"/>
  <circle cx="184" cy="1188.5" r="2" style="fill:#000" class="net_2"/>
  <line x1="184" x2="1198" y1="579.5" y2="579.5" class="net_2"/>
  <line x1="172" x2="239" y1="1188.5" y2="1188.5" class="net_2"/>
  <line x1="172" x2="184" y1="1188.5" y2="1188.5" class="net_2"/>
  <line x1="184" x2="184" y1="1188.5" y2="1357.5" class="net_2"/>
  <line x1="184" x2="1256" y1="1357.5" y2="1357.5" class="net_2"/>
  <line x1="1256" x2="1256" y1="1357.5" y2="894.5" class="net_2"/>
  <line x1="1256" x2="1296" y1="894.5" y2="894.5" class="net_2"/>
  <line x1="1144" x2="1154" y1="610.5" y2="610.5" class="net_20,21,22,23"/>
  <line x1="1154" x2="1154" y1="610.5" y2="599.5" class="net_20,21,22,23"/>
  <line x1="1154" x2="1198" y1="599.5" y2="599.5" class="net_20,21,22,23"/>
  <line x1="1144" x2="1164" y1="855.5" y2="855.5" class="net_12,13,14,15"/>
  <line x1="1164" x2="1164" y1="855.5" y2="639.5" class="net_12,13,14,15"/>
  <line x1="1164" x2="1198" y1="639.5" y2="639.5" class="net_12,13,14,15"/>
  <line x1="1327" x2="1344" y1="874.5" y2="874.5" class="net_34,35,36,37,38,39,40,41"/>
  <line x1="1344" x2="1344" y1="874.5" y2="779.5" class="net_34,35,36,37,38,39,40,41"/>
  <line x1="1344" x2="1381.6666666666667" y1="779.5" y2="779.5" class="net_34,35,36,37,38,39,40,41"/>
  <line x1="1327" x2="1344" y1="874.5" y2="874.5" class="net_34,35,36,37,38,39,40,41"/>
  <line x1="1344" x2="1344" y1="874.5" y2="814.5" class="net_34,35,36,37,38,39,40,41"/>
  <line x1="1344" x2="773" y1="814.5" y2="814.5" class="net_34,35,36,37,38,39,40,41"/>
  <line x1="773" x2="773" y1="814.5" y2="393" class="net_34,35,36,37,38,39,40,41"/>
  <circle cx="1344" cy="814.5" r="2" style="fill:#000" class="net_34,35,36,37,38,39,40,41"/>
  <circle cx="1344" cy="874.5" r="2" style="fill:#000" class="net_34,35,36,37,38,39,40,41"/>
  <line x1="773" x2="788.6666666666666" y1="393" y2="393" class="net_34,35,36,37,38,39,40,41"/>
  <line x1="1327" x2="1650" y1="874.5" y2="874.5" class="net_34,35,36,37,38,39,40,41"/>
  <line x1="1326" x2="1381.6666666666667" y1="794.5" y2="794.5" class="net_101,102,103,104,105,106,107,108"/>
  <line x1="270" x2="297" y1="1168.5" y2="1168.5" class="net_43,44"/>
  <line x1="297" x2="297" y1="1168.5" y2="1248.5" class="net_43,44"/>
  <circle cx="297" cy="1168.5" r="2" style="fill:#000" class="net_43,44"/>
  <circle cx="297" cy="1248.5" r="2" style="fill:#000" class="net_43,44"/>
  <line x1="297" x2="316.66666666666663" y1="1248.5" y2="1248.5" class="net_43,44"/>
  <line x1="270" x2="297" y1="1168.5" y2="1168.5" class="net_43,44"/>
  <line x1="297" x2="297" y1="1168.5" y2="1305.5" class="net_43,44"/>
  <line x1="297" x2="395" y1="1305.5" y2="1305.5" class="net_43,44"/>
  <line x1="270" x2="297" y1="1168.5" y2="1168.5" class="net_43,44"/>
  <line x1="297" x2="297" y1="1168.5" y2="991.5" class="net_43,44"/>
  <line x1="297" x2="312" y1="991.5" y2="991.5" class="net_43,44"/>
  <line x1="270" x2="395" y1="1168.5" y2="1168.5" class="net_43,44"/>
  <line x1="269" x2="287" y1="610.5" y2="610.5" class="net_109,110"/>
  <line x1="287" x2="287" y1="610.5" y2="1263.5" class="net_109,110"/>
  <circle cx="287" cy="610.5" r="2" style="fill:#000" class="net_109,110"/>
  <line x1="287" x2="316.66666666666663" y1="1263.5" y2="1263.5" class="net_109,110"/>
  <line x1="269" x2="287" y1="610.5" y2="610.5" class="net_109,110"/>
  <line x1="287" x2="287" y1="610.5" y2="304" class="net_109,110"/>
  <line x1="287" x2="1380.3333333333333" y1="304" y2="304" class="net_109,110"/>
  <line x1="269" x2="287" y1="610.5" y2="610.5" class="net_109,110"/>
  <line x1="287" x2="287" y1="610.5" y2="304" class="net_109,110"/>
  <line x1="287" x2="843" y1="304" y2="304" class="net_109,110"/>
  <line x1="843" x2="843" y1="304" y2="335" class="net_109,110"/>
  <line x1="843" x2="1483" y1="335" y2="335" class="net_109,110"/>
  <line x1="1483" x2="1483" y1="335" y2="223" class="net_109,110"/>
  <circle cx="843" cy="304" r="2" style="fill:#000" class="net_109,110"/>
  <line x1="1483" x2="1496.3333333333333" y1="223" y2="223" class="net_109,110"/>
  <line x1="1403.6666666666667" x2="1463" y1="787" y2="787" class="net_42"/>
  <line x1="1463" x2="1463" y1="787" y2="533" class="net_42"/>
  <circle cx="1463" cy="787" r="2" style="fill:#000" class="net_42"/>
  <line x1="1463" x2="1493" y1="533" y2="533" class="net_42"/>
  <line x1="1403.6666666666667" x2="1582.6666666666667" y1="787" y2="787" class="net_42"/>
  <line x1="1582.6666666666667" x2="1582.6666666666667" y1="787" y2="604.5" class="net_42"/>
  <line x1="1403.6666666666667" x2="1463" y1="787" y2="787" class="net_42"/>
  <line x1="1463" x2="1463" y1="787" y2="1353.5" class="net_42"/>
  <line x1="1463" x2="1493" y1="1353.5" y2="1353.5" class="net_42"/>
  <line x1="338.66666666666663" x2="362" y1="1256" y2="1256" class="net_25"/>
  <line x1="362" x2="362" y1="1256" y2="548" class="net_25"/>
  <circle cx="362" cy="1256" r="2" style="fill:#000" class="net_25"/>
  <line x1="362" x2="1493" y1="548" y2="548" class="net_25"/>
  <line x1="338.66666666666663" x2="401.3333333333333" y1="1256" y2="1256" class="net_25"/>
  <line x1="338.66666666666663" x2="362" y1="1256" y2="1256" class="net_25"/>
  <line x1="362" x2="362" y1="1256" y2="1335.5" class="net_25"/>
  <line x1="362" x2="773" y1="1335.5" y2="1335.5" class="net_25"/>
  <line x1="773" x2="773" y1="1335.5" y2="1196" class="net_25"/>
  <line x1="773" x2="793" y1="1196" y2="1196" class="net_25"/>
  <line x1="1523" x2="1533" y1="735.5" y2="735.5" class="net_111"/>
  <line x1="1533" x2="1533" y1="735.5" y2="431.5" class="net_111"/>
  <circle cx="1533" cy="735.5" r="2" style="fill:#000" class="net_111"/>
  <line x1="1533" x2="1572.6666666666667" y1="431.5" y2="431.5" class="net_111"/>
  <line x1="1523" x2="1533" y1="735.5" y2="735.5" class="net_111"/>
  <line x1="1533" x2="1533" y1="735.5" y2="1381" class="net_111"/>
  <line x1="1533" x2="1572.6666666666667" y1="1381" y2="1381" class="net_111"/>
  <line x1="1523" x2="1533" y1="735.5" y2="735.5" class="net_111"/>
  <line x1="1533" x2="1533" y1="735.5" y2="960.5" class="net_111"/>
  <circle cx="1533" cy="960.5" r="2" style="fill:#000" class="net_111"/>
  <line x1="1533" x2="1572.6666666666667" y1="960.5" y2="960.5" class="net_111"/>
  <line x1="1523" x2="1543" y1="610.5" y2="610.5" class="net_112"/>
  <line x1="1543" x2="1543" y1="610.5" y2="451.5" class="net_112"/>
  <circle cx="1543" cy="610.5" r="2" style="fill:#000" class="net_112"/>
  <line x1="1543" x2="1572.6666666666667" y1="451.5" y2="451.5" class="net_112"/>
  <line x1="1523" x2="1543" y1="610.5" y2="610.5" class="net_112"/>
  <line x1="1543" x2="1543" y1="610.5" y2="980.5" class="net_112"/>
  <line x1="1543" x2="1572.6666666666667" y1="980.5" y2="980.5" class="net_112"/>
  <line x1="1523" x2="1582.6666666666667" y1="540.5" y2="540.5" class="net_45"/>
  <line x1="1582.6666666666667" x2="1582.6666666666667" y1="540.5" y2="456.5" class="net_45"/>
  <line x1="342" x2="352" y1="335" y2="335" class="net_113,114"/>
  <line x1="352" x2="352" y1="335" y2="1320.5" class="net_113,114"/>
  <circle cx="352" cy="335" r="2" style="fill:#000" class="net_113,114"/>
  <line x1="352" x2="395" y1="1320.5" y2="1320.5" class="net_113,114"/>
  <line x1="342" x2="352" y1="335" y2="335" class="net_113,114"/>
  <line x1="352" x2="352" y1="335" y2="263" class="net_113,114"/>
  <line x1="352" x2="823" y1="263" y2="263" class="net_113,114"/>
  <line x1="823" x2="823" y1="263" y2="123" class="net_113,114"/>
  <circle cx="823" cy="263" r="2" style="fill:#000" class="net_113,114"/>
  <line x1="823" x2="1496.3333333333333" y1="123" y2="123" class="net_113,114"/>
  <line x1="342" x2="352" y1="335" y2="335" class="net_113,114"/>
  <line x1="352" x2="352" y1="335" y2="263" class="net_113,114"/>
  <line x1="352" x2="1344" y1="263" y2="263" class="net_113,114"/>
  <line x1="1344" x2="1344" y1="263" y2="284" class="net_113,114"/>
  <circle cx="1344" cy="263" r="2" style="fill:#000" class="net_113,114"/>
  <line x1="1344" x2="1380.3333333333333" y1="284" y2="284" class="net_113,114"/>
  <line x1="342" x2="352" y1="335" y2="335" class="net_113,114"/>
  <line x1="352" x2="352" y1="335" y2="263" class="net_113,114"/>
  <line x1="352" x2="1443" y1="263" y2="263" class="net_113,114"/>
  <line x1="1443" x2="1443" y1="263" y2="163" class="net_113,114"/>
  <line x1="1443" x2="1496.3333333333333" y1="163" y2="163" class="net_113,114"/>
  <line x1="1397" x2="1453" y1="729.5" y2="729.5" class="net_4"/>
  <line x1="1453" x2="1453" y1="729.5" y2="1401" class="net_4"/>
  <circle cx="1453" cy="729.5" r="2" style="fill:#000" class="net_4"/>
  <line x1="1453" x2="1572.6666666666667" y1="1401" y2="1401" class="net_4"/>
  <line x1="1397" x2="1453" y1="729.5" y2="729.5" class="net_4"/>
  <line x1="1453" x2="1453" y1="729.5" y2="83" class="net_4"/>
  <line x1="1453" x2="1506.3333333333333" y1="83" y2="83" class="net_4"/>
  <line x1="1506.3333333333333" x2="1506.3333333333333" y1="83" y2="68" class="net_4"/>
  <line x1="417" x2="447" y1="1313" y2="1313" class="net_27"/>
  <line x1="447" x2="447" y1="1313" y2="1368.5" class="net_27"/>
  <line x1="447" x2="753" y1="1368.5" y2="1368.5" class="net_27"/>
  <line x1="753" x2="753" y1="1368.5" y2="1443" class="net_27"/>
  <line x1="753" x2="1582.6666666666667" y1="1443" y2="1443" class="net_27"/>
  <circle cx="447" cy="1313" r="2" style="fill:#000" class="net_27"/>
  <circle cx="753" cy="1368.5" r="2" style="fill:#000" class="net_27"/>
  <line x1="1582.6666666666667" x2="1582.6666666666667" y1="1443" y2="1406" class="net_27"/>
  <line x1="417" x2="447" y1="1313" y2="1313" class="net_27"/>
  <line x1="447" x2="447" y1="1313" y2="1368.5" class="net_27"/>
  <line x1="447" x2="1493" y1="1368.5" y2="1368.5" class="net_27"/>
  <line x1="417" x2="447" y1="1313" y2="1313" class="net_27"/>
  <line x1="447" x2="447" y1="1313" y2="1156" class="net_27"/>
  <circle cx="447" cy="1156" r="2" style="fill:#000" class="net_27"/>
  <line x1="447" x2="793" y1="1156" y2="1156" class="net_27"/>
  <line x1="417" x2="447" y1="1313" y2="1313" class="net_27"/>
  <line x1="447" x2="447" y1="1313" y2="869" class="net_27"/>
  <line x1="447" x2="538.3333333333333" y1="869" y2="869" class="net_27"/>
  <line x1="342" x2="1496.3333333333333" y1="43" y2="43" class="net_116,117"/>
  <line x1="342" x2="1463" y1="43" y2="43" class="net_116,117"/>
  <line x1="1463" x2="1463" y1="43" y2="103" class="net_116,117"/>
  <circle cx="1463" cy="43" r="2" style="fill:#000" class="net_116,117"/>
  <line x1="1463" x2="1496.3333333333333" y1="103" y2="103" class="net_116,117"/>
  <line x1="342" x2="382" y1="43" y2="43" class="net_116,117"/>
  <line x1="382" x2="382" y1="43" y2="1183.5" class="net_116,117"/>
  <circle cx="382" cy="43" r="2" style="fill:#000" class="net_116,117"/>
  <line x1="382" x2="395" y1="1183.5" y2="1183.5" class="net_116,117"/>
  <line x1="1399" x2="1433" y1="243" y2="243" class="net_118,119"/>
  <line x1="1433" x2="1433" y1="243" y2="63" class="net_118,119"/>
  <circle cx="1433" cy="243" r="2" style="fill:#000" class="net_118,119"/>
  <line x1="1433" x2="1496.3333333333333" y1="63" y2="63" class="net_118,119"/>
  <line x1="1399" x2="1496.3333333333333" y1="243" y2="243" class="net_118,119"/>
  <line x1="743" x2="788.6666666666666" y1="408" y2="408" class="net_120,121,122,123,124,125,126,127"/>
  <line x1="1593" x2="1603" y1="905.5" y2="905.5" class="net_128,129,130,131,132,133,134,135"/>
  <line x1="1603" x2="1603" y1="905.5" y2="889.5" class="net_128,129,130,131,132,133,134,135"/>
  <line x1="1603" x2="1650" y1="889.5" y2="889.5" class="net_128,129,130,131,132,133,134,135"/>
  <line x1="810.6666666666666" x2="833" y1="400.5" y2="400.5" class="net_48"/>
  <line x1="833" x2="833" y1="400.5" y2="143" class="net_48"/>
  <line x1="833" x2="1506.3333333333333" y1="143" y2="143" class="net_48"/>
  <circle cx="833" cy="400.5" r="2" style="fill:#000" class="net_48"/>
  <line x1="1506.3333333333333" x2="1506.3333333333333" y1="143" y2="128" class="net_48"/>
  <line x1="810.6666666666666" x2="833" y1="400.5" y2="400.5" class="net_48"/>
  <line x1="833" x2="833" y1="400.5" y2="1120.5" class="net_48"/>
  <line x1="833" x2="952.3333333333334" y1="1120.5" y2="1120.5" class="net_48"/>
  <line x1="952.3333333333334" x2="952.3333333333334" y1="1120.5" y2="1105.5" class="net_48"/>
  <line x1="810.6666666666666" x2="833" y1="400.5" y2="400.5" class="net_48"/>
  <line x1="833" x2="833" y1="400.5" y2="324" class="net_48"/>
  <line x1="833" x2="1473" y1="324" y2="324" class="net_48"/>
  <line x1="1473" x2="1473" y1="324" y2="203" class="net_48"/>
  <line x1="1473" x2="1506.3333333333333" y1="203" y2="203" class="net_48"/>
  <circle cx="833" cy="324" r="2" style="fill:#000" class="net_48"/>
  <line x1="1506.3333333333333" x2="1506.3333333333333" y1="203" y2="188" class="net_48"/>
  <line x1="810.6666666666666" x2="833" y1="400.5" y2="400.5" class="net_48"/>
  <line x1="833" x2="833" y1="400.5" y2="346" class="net_48"/>
  <line x1="833" x2="1506.3333333333333" y1="346" y2="346" class="net_48"/>
  <circle cx="833" cy="346" r="2" style="fill:#000" class="net_48"/>
  <line x1="1506.3333333333333" x2="1506.3333333333333" y1="346" y2="248" class="net_48"/>
  <line x1="1672" x2="1692" y1="882" y2="882" class="net_49,50,51,52,53,54,55,56"/>
  <line x1="1692" x2="1692" y1="882" y2="1432" class="net_49,50,51,52,53,54,55,56"/>
  <line x1="1692" x2="863" y1="1432" y2="1432" class="net_49,50,51,52,53,54,55,56"/>
  <line x1="863" x2="863" y1="1432" y2="1080.5" class="net_49,50,51,52,53,54,55,56"/>
  <line x1="863" x2="942.3333333333334" y1="1080.5" y2="1080.5" class="net_49,50,51,52,53,54,55,56"/>
  <line x1="813" x2="942.3333333333334" y1="1100.5" y2="1100.5" class="net_140,141,142,143,144,145,146,147"/>
  <line x1="813" x2="843" y1="1100.5" y2="1100.5" class="net_140,141,142,143,144,145,146,147"/>
  <line x1="843" x2="843" y1="1100.5" y2="914.5" class="net_140,141,142,143,144,145,146,147"/>
  <circle cx="843" cy="1100.5" r="2" style="fill:#000" class="net_140,141,142,143,144,145,146,147"/>
  <line x1="843" x2="1138" y1="914.5" y2="914.5" class="net_140,141,142,143,144,145,146,147"/>
  <line x1="1229" x2="1246" y1="579.5" y2="579.5" class="net_30,31,32,33"/>
  <line x1="1246" x2="1246" y1="579.5" y2="692" class="net_30,31,32,33"/>
  <circle cx="1246" cy="579.5" r="2" style="fill:#000" class="net_30,31,32,33"/>
  <line x1="1246" x2="1295" y1="692" y2="692" class="net_30,31,32,33"/>
  <line x1="1229" x2="1473" y1="579.5" y2="579.5" class="net_30,31,32,33"/>
  <line x1="1473" x2="1473" y1="579.5" y2="660.5" class="net_30,31,32,33"/>
  <circle cx="1473" cy="579.5" r="2" style="fill:#000" class="net_30,31,32,33"/>
  <line x1="1473" x2="1497.6666666666667" y1="660.5" y2="660.5" class="net_30,31,32,33"/>
  <line x1="1229" x2="1572.6666666666667" y1="579.5" y2="579.5" class="net_30,31,32,33"/>
  <line x1="1228" x2="1295" y1="707" y2="707" class="net_150,151,152,153"/>
  <line x1="1317" x2="1390.3333333333333" y1="699.5" y2="699.5" class="net_67"/>
  <line x1="1390.3333333333333" x2="1390.3333333333333" y1="699.5" y2="309" class="net_67"/>
  <line x1="1400.3333333333333" x2="1463" y1="294" y2="294" class="net_68,69"/>
  <line x1="1463" x2="1463" y1="294" y2="183" class="net_68,69"/>
  <line x1="1463" x2="1496.3333333333333" y1="183" y2="183" class="net_68,69"/>
  <line x1="1399" x2="1473" y1="854.5" y2="854.5" class="net_160,161,162,163"/>
  <line x1="1473" x2="1473" y1="854.5" y2="675.5" class="net_160,161,162,163"/>
  <line x1="1473" x2="1497.6666666666667" y1="675.5" y2="675.5" class="net_160,161,162,163"/>
  <line x1="1519.6666666666667" x2="1553" y1="668" y2="668" class="net_72,73,74,75"/>
  <line x1="1553" x2="1553" y1="668" y2="599.5" class="net_72,73,74,75"/>
  <line x1="1553" x2="1572.6666666666667" y1="599.5" y2="599.5" class="net_72,73,74,75"/>
  <line x1="1588" x2="1647" y1="63" y2="63" class="net_46,47,57,58,70,71,80,81"/>
  <line x1="1584" x2="1657" y1="367" y2="367" class="net_24,28,27,25"/>
  <line x1="1657" x2="1657" y1="367" y2="68" class="net_24,28,27,25"/>
  <line x1="1144" x2="1197.5" y1="924.5" y2="924.5" class="net_140,141,142,143,144,145,146,147,59,60,61,62,63,64,65,66"/>
  <line x1="1138.3333333333335" x2="1207.5" y1="1001.5" y2="1001.5" class="net_24,29"/>
  <line x1="1207.5" x2="1207.5" y1="1001.5" y2="929.5" class="net_24,29"/>
  <line x1="1653" x2="1702" y1="507" y2="507" class="net_93,94,95,96,8,9,10,11,76,77,78,79"/>
  <line x1="1702" x2="1702" y1="507" y2="1421" class="net_93,94,95,96,8,9,10,11,76,77,78,79"/>
  <line x1="1702" x2="763" y1="1421" y2="1421" class="net_93,94,95,96,8,9,10,11,76,77,78,79"/>
  <line x1="763" x2="763" y1="1421" y2="866.5" class="net_93,94,95,96,8,9,10,11,76,77,78,79"/>
  <line x1="763" x2="791" y1="866.5" y2="866.5" class="net_93,94,95,96,8,9,10,11,76,77,78,79"/>
  <line x1="730" x2="801" y1="1033" y2="1033" class="net_26,28,27"/>
  <line x1="801" x2="801" y1="1033" y2="871.5" class="net_26,28,27"/>
  <line x1="1523" x2="1582.6666666666667" y1="1361" y2="1361" class="net_92"/>
  <line x1="1582.6666666666667" x2="1582.6666666666667" y1="1361" y2="985.5" class="net_92"/>
  <line x1="1667" x2="1692" y1="53" y2="53" class="net_82,83"/>
  <line x1="1692" x2="1692" y1="53" y2="12" class="net_82,83"/>
  <line x1="1692" x2="194" y1="12" y2="12" class="net_82,83"/>
  <line x1="194" x2="194" y1="12" y2="1208.5" class="net_82,83"/>
  <line x1="194" x2="239" y1="1208.5" y2="1208.5" class="net_82,83"/>
  <line x1="1217.5" x2="1296" y1="914.5" y2="914.5" class="net_84,85,86,87,88,89,90,91"/>
  <line x1="1592.6666666666667" x2="1628" y1="970.5" y2="970.5" class="net_5"/>
  <line x1="1592.6666666666667" x2="1634" y1="1391" y2="1391" class="net_6"/>
  <line x1="1592.6666666666667" x2="1628" y1="441.5" y2="441.5" class="net_7"/>
  <line x1="337" x2="372" y1="991.5" y2="991.5" class="net_24"/>
  <line x1="372" x2="372" y1="991.5" y2="1236" class="net_24"/>
  <circle cx="372" cy="991.5" r="2" style="fill:#000" class="net_24"/>
  <line x1="372" x2="401.3333333333333" y1="1236" y2="1236" class="net_24"/>
  <line x1="337" x2="372" y1="991.5" y2="991.5" class="net_24"/>
  <line x1="372" x2="372" y1="991.5" y2="357" class="net_24"/>
  <line x1="372" x2="1578" y1="357" y2="357" class="net_24"/>
  <line x1="337" x2="1132.3333333333335" y1="991.5" y2="991.5" class="net_24"/>
  <line x1="417" x2="793" y1="1176" y2="1176" class="net_28"/>
  <line x1="417" x2="427" y1="1176" y2="1176" class="net_28"/>
  <line x1="427" x2="427" y1="1176" y2="849" class="net_28"/>
  <circle cx="427" cy="1176" r="2" style="fill:#000" class="net_28"/>
  <line x1="427" x2="538.3333333333333" y1="849" y2="849" class="net_28"/>
  <line x1="1516.3333333333333" x2="1582" y1="53" y2="53" class="net_46,47"/>
  <line x1="1516.3333333333333" x2="1533" y1="113" y2="113" class="net_57,58"/>
  <line x1="1533" x2="1533" y1="113" y2="73" class="net_57,58"/>
  <line x1="1533" x2="1582" y1="73" y2="73" class="net_57,58"/>
  <line x1="1516.3333333333333" x2="1543" y1="173" y2="173" class="net_70,71"/>
  <line x1="1543" x2="1543" y1="173" y2="93" class="net_70,71"/>
  <line x1="1543" x2="1582" y1="93" y2="93" class="net_70,71"/>
  <line x1="1516.3333333333333" x2="1582.5" y1="233" y2="233" class="net_80,81"/>
  <line x1="1582.5" x2="1582.5" y1="233" y2="113.5" class="net_80,81"/>
  <line x1="544.3333333333333" x2="688" y1="859" y2="859" class="net_28,27"/>
  <line x1="688" x2="688" y1="859" y2="377" class="net_28,27"/>
  <circle cx="688" cy="859" r="2" style="fill:#000" class="net_28,27"/>
  <line x1="688" x2="1578" y1="377" y2="377" class="net_28,27"/>
  <line x1="544.3333333333333" x2="688" y1="859" y2="859" class="net_28,27"/>
  <line x1="688" x2="688" y1="859" y2="1043" class="net_28,27"/>
  <line x1="688" x2="724" y1="1043" y2="1043" class="net_28,27"/>
  <line x1="72" x2="126" y1="34.5" y2="34.5" class="net_NaN,NaN,NaN,NaN"/>
  <line x1="22" x2="66" y1="24.5" y2="24.5" class="net_NaN,NaN"/>
  <line x1="22" x2="22" y1="24.5" y2="44.5" class="net_NaN,NaN"/>
  <line x1="22" x2="66" y1="44.5" y2="44.5" class="net_NaN,NaN"/>
  <line x1="962.3333333333334" x2="1094" y1="1090.5" y2="1090.5" class="net_59,60,61,62,63,64,65,66"/>
  <line x1="1094" x2="1094" y1="1090.5" y2="934.5" class="net_59,60,61,62,63,64,65,66"/>
  <line x1="1094" x2="1138" y1="934.5" y2="934.5" class="net_59,60,61,62,63,64,65,66"/>
  <line x1="911" x2="1104" y1="1023" y2="1023" class="net_29"/>
  <line x1="1104" x2="1104" y1="1023" y2="1011.5" class="net_29"/>
  <line x1="1104" x2="1132.3333333333335" y1="1011.5" y2="1011.5" class="net_29"/>
  <line x1="1592.6666666666667" x2="1603" y1="589.5" y2="589.5" class="net_76,77,78,79"/>
  <line x1="1603" x2="1603" y1="589.5" y2="537" class="net_76,77,78,79"/>
  <line x1="1603" x2="1647" y1="537" y2="537" class="net_76,77,78,79"/>
  <line x1="505" x2="724" y1="1023" y2="1023" class="net_26"/>
</svg>
